Simple graphs/tables
…
#GA frequency for stillbirths, through the years
 GA_SB_Y_freq <- bevn_eco %>%
   group_by(birthyear) %>%
  filter(stillbirth==1) %>% 
  filter(birthyear>2005) %>% 
 select(GA_weeks_cat)

## Adding missing grouping variables: `birthyear`

  ungroup(GA_SB_Y_freq)

## # A tibble: 5,573 x 2
##    birthyear GA_weeks_cat
##        <int> <fct>       
##  1      2006 <NA>        
##  2      2006 <NA>        
##  3      2006 <NA>        
##  4      2006 <NA>        
##  5      2006 <NA>        
##  6      2006 <NA>        
##  7      2006 <NA>        
##  8      2006 <NA>        
##  9      2006 <NA>        
## 10      2006 <NA>        
## # ... with 5,563 more rows

  GA_SB_Y_freq

## # A tibble: 5,573 x 2
## # Groups:   birthyear [15]
##    birthyear GA_weeks_cat
##        <int> <fct>       
##  1      2006 <NA>        
##  2      2006 <NA>        
##  3      2006 <NA>        
##  4      2006 <NA>        
##  5      2006 <NA>        
##  6      2006 <NA>        
##  7      2006 <NA>        
##  8      2006 <NA>        
##  9      2006 <NA>        
## 10      2006 <NA>        
## # ... with 5,563 more rows
…
  #BW frequency for stillbirths, through the years
  BW_SB_Y_freq <- bevn_eco %>%
   group_by(birthyear) %>%
  filter(stillbirth==1) %>% 
   filter(!is.na(BW)) %>% 
  select(BW_cat) 

## Adding missing grouping variables: `birthyear`

  ungroup(BW_SB_Y_freq)

## # A tibble: 5,466 x 2
##    birthyear BW_cat
##        <int> <fct> 
##  1      2006 LBW   
##  2      2006 LBW   
##  3      2006 LBW   
##  4      2006 LBW   
##  5      2006 NBW   
##  6      2006 LBW   
##  7      2006 LBW   
##  8      2006 LBW   
##  9      2006 LBW   
## 10      2006 LBW   
## # ... with 5,456 more rows
…
